<?xml version="1.0" encoding="UTF-8" standalone="no"?>
<!-- Created with Inkscape (http://www.inkscape.org/) -->

<svg
   xmlns:dc="http://purl.org/dc/elements/1.1/"
   xmlns:cc="http://creativecommons.org/ns#"
   xmlns:rdf="http://www.w3.org/1999/02/22-rdf-syntax-ns#"
   xmlns:svg="http://www.w3.org/2000/svg"
   xmlns="http://www.w3.org/2000/svg"
   xmlns:sodipodi="http://sodipodi.sourceforge.net/DTD/sodipodi-0.dtd"
   xmlns:inkscape="http://www.inkscape.org/namespaces/inkscape"
   version="1.1"
   id="svg1055"
   xml:space="preserve"
   width="2622.0322"
   height="2376.3884"
   viewBox="0 0 2622.0322 2376.3884"
   sodipodi:docname="3dgraph.svg"
   inkscape:version="0.92.4 5da689c313, 2019-01-14"><metadata
     id="metadata1061"><rdf:RDF><cc:Work
         rdf:about=""><dc:format>image/svg+xml</dc:format><dc:type
           rdf:resource="http://purl.org/dc/dcmitype/StillImage" /><dc:title></dc:title></cc:Work></rdf:RDF></metadata><defs
     id="defs1059"><clipPath
       clipPathUnits="userSpaceOnUse"
       id="clipPath1375"><path
         d="M 0,109.60945 V 290.37717 L 287.38554,353.6676 453.29721,244.05815 V 63.29044 L 165.91165,0 Z"
         id="path1373"
         inkscape:connector-curvature="0" /></clipPath></defs><sodipodi:namedview
     pagecolor="#ffffff"
     bordercolor="#666666"
     borderopacity="1"
     objecttolerance="10"
     gridtolerance="10"
     guidetolerance="10"
     inkscape:pageopacity="0"
     inkscape:pageshadow="2"
     inkscape:window-width="1920"
     inkscape:window-height="1052"
     id="namedview1057"
     showgrid="false"
     inkscape:zoom="0.85141178"
     inkscape:cx="540.68848"
     inkscape:cy="1477.3331"
     inkscape:window-x="0"
     inkscape:window-y="0"
     inkscape:window-maximized="1"
     inkscape:current-layer="g2433" /><g
     id="g1063"
     inkscape:groupmode="layer"
     inkscape:label="test"
     transform="matrix(1.3333333,0,0,-1.3333333,-385.69816,2623.0776)"><g
       id="g1065"
       transform="matrix(-1,0,0,1,459.29422,3.328)"><g
         id="g1067"><g
           id="g1069" /><g
           id="g1251"><g
             id="g1253"><g
               id="g1255"
               transform="translate(368.272,40.271)"><g
                 id="g1257" /><g
                 id="g1259"
                 transform="translate(-368.272,-40.271)" /></g></g><g
             id="g1261"><g
               id="g1263"
               transform="translate(324.73,30.681)"><g
                 id="g1265" /><g
                 id="g1267"
                 transform="translate(-324.73,-30.681)" /></g></g><g
             id="g1269"><g
               id="g1271"
               transform="translate(281.187,21.092)"><g
                 id="g1273" /><g
                 id="g1275"
                 transform="translate(-281.187,-21.092)" /></g></g><g
             id="g1277"><g
               id="g1279"
               transform="translate(237.645,11.503)"><g
                 id="g1281" /><g
                 id="g1283"
                 transform="translate(-237.645,-11.503)" /></g></g><g
             id="g1285"><g
               id="g1287"
               transform="translate(13.69,94.718)"><g
                 id="g1289" /><g
                 id="g1291"
                 transform="translate(-13.69,-94.718)" /></g></g><g
             id="g1293"><g
               id="g1295"
               transform="translate(30.448,83.647)"><g
                 id="g1297" /><g
                 id="g1299"
                 transform="translate(-30.448,-83.647)" /></g></g><g
             id="g1301"><g
               id="g1303"
               transform="translate(47.207,72.575)"><g
                 id="g1305" /><g
                 id="g1307"
                 transform="translate(-47.207,-72.575)" /></g></g><g
             id="g1309"><g
               id="g1311"
               transform="translate(63.965,61.504)"><g
                 id="g1313" /><g
                 id="g1315"
                 transform="translate(-63.965,-61.504)" /></g></g><g
             id="g1317"><g
               id="g1319"
               transform="translate(80.724,50.433)"><g
                 id="g1321" /><g
                 id="g1323"
                 transform="translate(-80.724,-50.433)" /></g></g><g
             id="g1325"><g
               id="g1327"
               transform="translate(-3.519,110.261)"><g
                 id="g1329" /><g
                 id="g1331"
                 transform="translate(3.519,-110.261)" /></g></g><g
             id="g1333"><g
               id="g1335"
               transform="translate(-3.519,126.694)"><g
                 id="g1337" /><g
                 id="g1339"
                 transform="translate(3.519,-126.694)" /></g></g><g
             id="g1341"><g
               id="g1343"
               transform="translate(-3.519,143.127)"><g
                 id="g1345" /><g
                 id="g1347"
                 transform="translate(3.519,-143.127)" /></g></g></g><g
           id="g1349" /><g
           id="g1351"><g
             id="g1353"><g
               id="g1355" /><g
               id="g1357" /><g
               id="g1359"
               transform="translate(287.382,172.897)"><g
                 id="g1361" /><g
                 id="g1363"
                 transform="translate(-287.382,-172.897)" /></g><g
               id="g1365" /><g
               id="g1367" /><g
               id="g1369"><g
                 id="g1371"
                 clip-path="url(#clipPath1375)" /></g><g
               id="g2433"
               transform="matrix(4.7937444,0,0,4.7937444,-1720.4497,0.73822281)"><g
                 id="g2668"><g
                   transform="translate(-1.4823556e-6,-2.4168e-6)"
                   id="g1071"><g
                     id="g1073"><g
                       id="g1075"><path
                         sodipodi:nodetypes="cccccc"
                         d="M 178.52798,148.92638 286.22801,77.778166 M 134.98495,139.33696 242.68497,68.188766 M 91.44193,129.74756 199.14196,58.599346"
                         style="fill:none;stroke:#bfbfbf;stroke-width:0.3985;stroke-linecap:butt;stroke-linejoin:miter;stroke-miterlimit:10;stroke-dasharray:none;stroke-opacity:1"
                         id="path1077"
                         inkscape:connector-curvature="0" /></g></g><g
                     id="g1079"><g
                       id="g1081"><path
                         d="M 312.52354,156.2925 25.13799,93.00204 M 329.2822,145.22089 41.89665,81.93045 M 346.04086,134.14929 58.6553,70.85884 M 362.79953,123.07768 75.41397,59.78725"
                         style="fill:none;stroke:#bfbfbf;stroke-width:0.3985;stroke-linecap:butt;stroke-linejoin:miter;stroke-miterlimit:10;stroke-dasharray:none;stroke-opacity:1"
                         id="path1083"
                         inkscape:connector-curvature="0" /></g></g><g
                     id="g1085"><g
                       id="g1087"><path
                         d="M 312.52354,156.2925 V 337.0602 M 329.2822,145.22089 V 325.9886 M 346.04086,134.14929 V 314.917 M 362.79953,123.07768 V 303.8454"
                         style="fill:none;stroke:#bfbfbf;stroke-width:0.3985;stroke-linecap:butt;stroke-linejoin:miter;stroke-miterlimit:10;stroke-dasharray:none;stroke-opacity:1"
                         id="path1089"
                         inkscape:connector-curvature="0" /></g></g><g
                     id="g1091"><g
                       id="g1093"><path
                         sodipodi:nodetypes="cccc"
                         d="M 287.38554,181.11656 394.25292,111.26773 M 287.38554,197.5499 394.25292,127.70106"
                         style="fill:none;stroke:#bfbfbf;stroke-width:0.3985;stroke-linecap:butt;stroke-linejoin:miter;stroke-miterlimit:10;stroke-dasharray:none;stroke-opacity:1"
                         id="path1095"
                         inkscape:connector-curvature="0" /></g></g><g
                     id="g1097"><g
                       id="g1099"><path
                         d="M 178.52798,148.92638 V 329.69409 M 134.98495,139.33696 V 320.10468 M 91.44193,129.74756 v 180.76771"
                         style="fill:none;stroke:#bfbfbf;stroke-width:0.3985;stroke-linecap:butt;stroke-linejoin:miter;stroke-miterlimit:10;stroke-dasharray:none;stroke-opacity:1"
                         id="path1101"
                         inkscape:connector-curvature="0" /></g></g><g
                     id="g1103"><g
                       id="g1105"><path
                         d="M 287.38554,181.11656 0,117.82611 M 287.38554,197.5499 0,134.25946"
                         style="fill:none;stroke:#bfbfbf;stroke-width:0.3985;stroke-linecap:butt;stroke-linejoin:miter;stroke-miterlimit:10;stroke-dasharray:none;stroke-opacity:1"
                         id="path1107"
                         inkscape:connector-curvature="0" /></g></g></g><g
                   transform="translate(-1.4823556e-6,-2.4168e-6)"
                   id="g1109"><g
                     transform="translate(-58.211631,38.461256)"
                     id="g1111"><g
                       id="g1113"><path
                         d="m 178.52798,148.92638 2.36547,-1.56275 m -45.9085,-8.02667 2.36547,-1.56273 m -45.90849,-8.02667 2.36546,-1.56273 m 250.63225,-88.86792 -2.36547,1.56276 m -41.17757,-11.15216 -2.36544,1.56274 m -41.17757,-11.15216 -2.36546,1.56276"
                         style="fill:none;stroke:#808080;stroke-width:0.19925;stroke-linecap:butt;stroke-linejoin:miter;stroke-miterlimit:10;stroke-dasharray:none;stroke-opacity:1"
                         id="path1115"
                         inkscape:connector-curvature="0" /></g><g
                       id="g1117"><path
                         d="m 200.2995,153.72107 3.54784,-2.34387 m -47.09087,-7.24553 3.54783,-2.34387 m -47.09086,-7.24553 3.54784,-2.34387 m -47.09087,-7.24555 3.54784,-2.34387 m 292.9929,-78.49736 -3.54784,2.34388 m -39.99519,-11.93328 -3.54783,2.34388 m -39.9952,-11.9333 -3.54783,2.34389 m -39.99518,-11.93329 -3.54784,2.34389"
                         style="fill:none;stroke:#808080;stroke-width:0.19925;stroke-linecap:butt;stroke-linejoin:miter;stroke-miterlimit:10;stroke-dasharray:none;stroke-opacity:1"
                         id="path1119"
                         inkscape:connector-curvature="0" /></g></g><g
                     id="g1121"><g
                       id="g1123"><path
                         d="m 312.52354,156.2925 -2.76857,-0.60971 m 19.52723,-10.4619 -2.76857,-0.6097 m 19.52723,-10.4619 -2.76856,-0.60971 m 19.52723,-10.4619 -2.76857,-0.60969 M 25.13799,93.00204 l 2.76857,0.60973 m 13.99009,-11.68132 2.76855,0.60971 m 13.9901,-11.68132 2.76857,0.60973 m 13.9901,-11.68132 2.76857,0.60972"
                         style="fill:none;stroke:#808080;stroke-width:0.19925;stroke-linecap:butt;stroke-linejoin:miter;stroke-miterlimit:10;stroke-dasharray:none;stroke-opacity:1"
                         id="path1125"
                         inkscape:connector-curvature="0" /></g><g
                       id="g1127"><path
                         d="m 304.14421,161.8283 -4.15243,-0.91448 m 20.9111,-10.15714 -4.15244,-0.91447 m 20.91109,-10.15712 -4.15243,-0.91448 m 20.9111,-10.15711 -4.15244,-0.9145 m 20.91109,-10.15711 -4.15244,-0.91448 M 16.75865,98.53784 l 4.15244,0.91449 m 12.60623,-11.98608 4.15243,0.91449 m 12.60622,-11.98609 4.15243,0.91449 m 12.60624,-11.9861 4.15243,0.91449 m 12.60623,-11.98608 4.15244,0.91449"
                         style="fill:none;stroke:#808080;stroke-width:0.19925;stroke-linecap:butt;stroke-linejoin:miter;stroke-miterlimit:10;stroke-dasharray:none;stroke-opacity:1"
                         id="path1129"
                         inkscape:connector-curvature="0" /></g></g><g
                     id="g1131"><g
                       id="g1133"><path
                         d="m 178.52798,329.69409 2.36547,-1.56274 m -45.9085,-8.02667 2.36547,-1.56273 m -45.90849,-8.02668 2.36546,-1.56274"
                         style="fill:none;stroke:#808080;stroke-width:0.19925;stroke-linecap:butt;stroke-linejoin:miter;stroke-miterlimit:10;stroke-dasharray:none;stroke-opacity:1"
                         id="path1135"
                         inkscape:connector-curvature="0" /></g><g
                       id="g1137"><path
                         d="m 200.2995,334.48878 3.54784,-2.34387 m -47.09087,-7.24553 3.54783,-2.34387 m -47.09086,-7.24554 3.54784,-2.34387 m -47.09087,-7.24553 3.54784,-2.34387"
                         style="fill:none;stroke:#808080;stroke-width:0.19925;stroke-linecap:butt;stroke-linejoin:miter;stroke-miterlimit:10;stroke-dasharray:none;stroke-opacity:1"
                         id="path1139"
                         inkscape:connector-curvature="0" /></g></g><g
                     id="g1141"><g
                       id="g1143"><path
                         d="m 312.52354,337.0602 -2.76857,-0.6097 m 19.52723,-10.4619 -2.76857,-0.60971 m 19.52723,-10.46189 -2.76856,-0.6097 m 19.52723,-10.4619 -2.76857,-0.60971"
                         style="fill:none;stroke:#808080;stroke-width:0.19925;stroke-linecap:butt;stroke-linejoin:miter;stroke-miterlimit:10;stroke-dasharray:none;stroke-opacity:1"
                         id="path1145"
                         inkscape:connector-curvature="0" /></g><g
                       id="g1147"><path
                         d="m 304.14421,342.59601 -4.15243,-0.91448 m 20.9111,-10.15713 -4.15244,-0.91448 m 20.91109,-10.15712 -4.15243,-0.91447 m 20.9111,-10.15713 -4.15244,-0.91448 m 20.91109,-10.15712 -4.15244,-0.91447"
                         style="fill:none;stroke:#808080;stroke-width:0.19925;stroke-linecap:butt;stroke-linejoin:miter;stroke-miterlimit:10;stroke-dasharray:none;stroke-opacity:1"
                         id="path1149"
                         inkscape:connector-curvature="0" /></g></g><g
                     id="g1151"><g
                       id="g1153"><path
                         d="m 312.52354,156.2925 v 2.83476 m 16.75866,-13.90637 v 2.83477 m 16.75866,-13.90637 v 2.83476 m 16.75867,-13.90637 v 2.83478 M 312.52354,337.0602 v -2.83477 m 16.75866,-8.23683 v -2.83478 m 16.75866,-8.23682 v -2.83477 m 16.75867,-8.23683 v -2.83478"
                         style="fill:none;stroke:#808080;stroke-width:0.19925;stroke-linecap:butt;stroke-linejoin:miter;stroke-miterlimit:10;stroke-dasharray:none;stroke-opacity:1"
                         id="path1155"
                         inkscape:connector-curvature="0" /></g><g
                       id="g1157"><path
                         d="m 304.14421,161.8283 v 4.25175 m 16.75867,-15.32337 v 4.25176 m 16.75865,-15.32335 v 4.25175 M 354.4202,128.6135 v 4.25173 m 16.75865,-15.32334 v 4.25175 m -67.03464,220.80237 v -4.25176 m 16.75867,-6.81985 v -4.25174 m 16.75865,-6.81986 v -4.25175 m 16.75867,-6.81985 v -4.25174 m 16.75865,-6.81986 v -4.25175"
                         style="fill:none;stroke:#808080;stroke-width:0.19925;stroke-linecap:butt;stroke-linejoin:miter;stroke-miterlimit:10;stroke-dasharray:none;stroke-opacity:1"
                         id="path1159"
                         inkscape:connector-curvature="0" /></g></g><g
                     id="g1161"><g
                       transform="translate(-59.04429,39.76062)"
                       id="g1163"><path
                         d="m 287.38554,181.11656 2.36546,-1.56273 m -2.36546,17.99607 2.36546,-1.56273 m 163.54621,-124.48006 -2.36546,1.56274 m 2.36546,14.87059 -2.36546,1.56275"
                         style="fill:none;stroke:#808080;stroke-width:0.19925;stroke-linecap:butt;stroke-linejoin:miter;stroke-miterlimit:10;stroke-dasharray:none;stroke-opacity:1"
                         id="path1165"
                         inkscape:connector-curvature="0" /></g><g
                       id="g1167"><path
                         d="m 228.34125,212.66051 3.54784,-2.34387 m -3.54784,18.77722 3.54784,-2.34388 m -3.54784,18.77721 3.54784,-2.34387 m 162.36383,-140.13226 -3.54784,2.34388 m 3.54784,14.08945 -3.54784,2.34389 m 3.54784,14.08944 -3.54784,2.34389"
                         style="fill:none;stroke:#808080;stroke-width:0.19925;stroke-linecap:butt;stroke-linejoin:miter;stroke-miterlimit:10;stroke-dasharray:none;stroke-opacity:1"
                         id="path1169"
                         inkscape:connector-curvature="0" /></g></g><g
                     id="g1171"><g
                       id="g1173"><path
                         d="m 25.13799,93.00204 v 2.83478 M 41.89665,81.93045 v 2.83476 M 58.6553,70.85884 v 2.83478 M 75.41397,59.78725 v 2.83477"
                         style="fill:none;stroke:#808080;stroke-width:0.19925;stroke-linecap:butt;stroke-linejoin:miter;stroke-miterlimit:10;stroke-dasharray:none;stroke-opacity:1"
                         id="path1175"
                         inkscape:connector-curvature="0" /></g><g
                       id="g1177"><path
                         d="m 16.75865,98.53784 v 4.25176 M 33.51732,87.46625 V 91.718 M 50.27597,76.39465 V 80.6464 M 67.03464,65.32304 V 69.5748 M 83.7933,54.25145 v 4.25174"
                         style="fill:none;stroke:#808080;stroke-width:0.19925;stroke-linecap:butt;stroke-linejoin:miter;stroke-miterlimit:10;stroke-dasharray:none;stroke-opacity:1"
                         id="path1179"
                         inkscape:connector-curvature="0" /></g></g><g
                     id="g1181"><g
                       id="g1183"><path
                         d="m 0,117.82611 2.36545,-1.56273 M 0,134.25946 2.36545,132.69672"
                         style="fill:none;stroke:#808080;stroke-width:0.19925;stroke-linecap:butt;stroke-linejoin:miter;stroke-miterlimit:10;stroke-dasharray:none;stroke-opacity:1"
                         id="path1185"
                         inkscape:connector-curvature="0" /></g><g
                       id="g1187"><path
                         d="m 0,109.60945 3.54784,-2.34387 M 0,126.04279 3.54784,123.69891 M 0,142.47612 3.54784,140.13225"
                         style="fill:none;stroke:#808080;stroke-width:0.19925;stroke-linecap:butt;stroke-linejoin:miter;stroke-miterlimit:10;stroke-dasharray:none;stroke-opacity:1"
                         id="path1189"
                         inkscape:connector-curvature="0" /></g></g><g
                     id="g1191"><g
                       id="g1193"><path
                         d="m 178.52798,148.92638 v 2.83476 m -43.54303,-12.42418 v 2.83478 M 91.44193,129.74756 v 2.83478 m 87.08605,197.11175 v -2.83478 m -43.54303,-6.75463 v -2.83478 m -43.54302,-6.75463 v -2.83477"
                         style="fill:none;stroke:#808080;stroke-width:0.19925;stroke-linecap:butt;stroke-linejoin:miter;stroke-miterlimit:10;stroke-dasharray:none;stroke-opacity:1"
                         id="path1195"
                         inkscape:connector-curvature="0" /></g><g
                       id="g1197"><path
                         d="m 200.2995,153.72107 v 4.25175 m -43.54303,-13.84115 v 4.25175 M 113.21344,134.54227 V 138.794 M 69.67041,124.95285 v 4.25175 M 200.2995,334.48878 v -4.25173 m -43.54303,-5.33767 v -4.25175 m -43.54303,-5.33766 v -4.25174 m -43.54303,-5.33766 v -4.25176"
                         style="fill:none;stroke:#808080;stroke-width:0.19925;stroke-linecap:butt;stroke-linejoin:miter;stroke-miterlimit:10;stroke-dasharray:none;stroke-opacity:1"
                         id="path1199"
                         inkscape:connector-curvature="0" /></g></g><g
                     id="g1201"><g
                       id="g1203"><path
                         d="m 287.38554,181.11656 -2.76857,-0.60971 m 2.76857,17.04305 -2.76857,-0.6097 M 0,117.82611 2.76855,118.43584 M 0,134.25946 l 2.76855,0.60971"
                         style="fill:none;stroke:#808080;stroke-width:0.19925;stroke-linecap:butt;stroke-linejoin:miter;stroke-miterlimit:10;stroke-dasharray:none;stroke-opacity:1"
                         id="path1205"
                         inkscape:connector-curvature="0" /></g><g
                       id="g1207"><path
                         d="m 287.38554,172.89989 -4.15243,-0.91448 m 4.15243,17.34783 -4.15243,-0.91448 m 4.15243,17.34781 -4.15243,-0.91447 M 0,109.60945 4.15244,110.52394 M 0,126.04279 4.15244,126.95728 M 0,142.47612 l 4.15244,0.91449"
                         style="fill:none;stroke:#808080;stroke-width:0.19925;stroke-linecap:butt;stroke-linejoin:miter;stroke-miterlimit:10;stroke-dasharray:none;stroke-opacity:1"
                         id="path1209"
                         inkscape:connector-curvature="0" /></g></g><g
                     transform="translate(-58.211631,38.461256)"
                     id="g1211"><g
                       id="g1213"><path
                         d="m 344.43964,39.31691 v 2.83478 M 300.8966,29.72751 v 2.83478 m -43.54301,-12.4242 v 2.83478"
                         style="fill:none;stroke:#808080;stroke-width:0.19925;stroke-linecap:butt;stroke-linejoin:miter;stroke-miterlimit:10;stroke-dasharray:none;stroke-opacity:1"
                         id="path1215"
                         inkscape:connector-curvature="0" /></g><g
                       id="g1217"><path
                         d="m 366.21115,44.11162 v 4.25175 M 322.66812,34.52222 v 4.25174 M 279.12509,24.9328 v 4.25176 M 235.58208,15.3434 v 4.25174"
                         style="fill:none;stroke:#808080;stroke-width:0.19925;stroke-linecap:butt;stroke-linejoin:miter;stroke-miterlimit:10;stroke-dasharray:none;stroke-opacity:1"
                         id="path1219"
                         inkscape:connector-curvature="0" /></g></g><g
                     transform="translate(-59.044288,39.76062)"
                     id="g1221"><g
                       id="g1223"><path
                         d="m 453.29721,71.50711 -2.76857,-0.60971 m 2.76857,17.04304 -2.76857,-0.60971"
                         style="fill:none;stroke:#808080;stroke-width:0.19925;stroke-linecap:butt;stroke-linejoin:miter;stroke-miterlimit:10;stroke-dasharray:none;stroke-opacity:1"
                         id="path1225"
                         inkscape:connector-curvature="0" /></g><g
                       id="g1227"><path
                         d="m 453.29721,63.29044 -4.15243,-0.91448 m 4.15243,17.34781 -4.15243,-0.91447 m 4.15243,17.3478 -4.15243,-0.91447"
                         style="fill:none;stroke:#808080;stroke-width:0.19925;stroke-linecap:butt;stroke-linejoin:miter;stroke-miterlimit:10;stroke-dasharray:none;stroke-opacity:1"
                         id="path1229"
                         inkscape:connector-curvature="0" /></g></g></g><g
                   transform="translate(-1.4823556e-6,-2.4168e-6)"
                   id="g1231"><path
                     d="M 287.38554,172.89989 0,109.60945"
                     style="fill:none;stroke:#000000;stroke-width:0.3985;stroke-linecap:butt;stroke-linejoin:miter;stroke-miterlimit:10;stroke-dasharray:none;stroke-opacity:1"
                     id="path1233"
                     inkscape:connector-curvature="0" /><path
                     sodipodi:nodetypes="cc"
                     d="M 394.04609,102.79119 109.25926,37.941509"
                     style="fill:none;stroke:#000000;stroke-width:0.3985;stroke-linecap:butt;stroke-linejoin:miter;stroke-miterlimit:10;stroke-dasharray:none;stroke-opacity:1"
                     id="path1235"
                     inkscape:connector-curvature="0" /><path
                     sodipodi:nodetypes="cc"
                     d="m 287.38554,172.89989 106.66055,-70.1087"
                     style="fill:none;stroke:#000000;stroke-width:0.3985;stroke-linecap:butt;stroke-linejoin:miter;stroke-miterlimit:10;stroke-dasharray:none;stroke-opacity:1"
                     id="path1237"
                     inkscape:connector-curvature="0" /><path
                     sodipodi:nodetypes="cc"
                     d="M 0,109.60945 109.25926,37.941509"
                     style="fill:none;stroke:#000000;stroke-width:0.3985;stroke-linecap:butt;stroke-linejoin:miter;stroke-miterlimit:10;stroke-dasharray:none;stroke-opacity:1"
                     id="path1239"
                     inkscape:connector-curvature="0" /><path
                     d="M 287.38554,353.6676 0,290.37717"
                     style="fill:none;stroke:#000000;stroke-width:0.3985;stroke-linecap:butt;stroke-linejoin:miter;stroke-miterlimit:10;stroke-dasharray:none;stroke-opacity:1"
                     id="path1241"
                     inkscape:connector-curvature="0" /><path
                     sodipodi:nodetypes="cc"
                     d="M 287.38554,353.6676 394.04609,283.5589"
                     style="fill:none;stroke:#000000;stroke-width:0.3985;stroke-linecap:butt;stroke-linejoin:miter;stroke-miterlimit:10;stroke-dasharray:none;stroke-opacity:1"
                     id="path1243"
                     inkscape:connector-curvature="0" /><path
                     d="M 287.38554,172.89989 V 353.6676"
                     style="fill:none;stroke:#000000;stroke-width:0.3985;stroke-linecap:butt;stroke-linejoin:miter;stroke-miterlimit:10;stroke-dasharray:none;stroke-opacity:1"
                     id="path1245"
                     inkscape:connector-curvature="0" /><path
                     d="M 394.04609,102.79119 V 283.5589"
                     style="fill:none;stroke:#000000;stroke-width:0.3985;stroke-linecap:butt;stroke-linejoin:miter;stroke-miterlimit:10;stroke-dasharray:none;stroke-opacity:1"
                     id="path1247"
                     inkscape:connector-curvature="0" /><path
                     d="M 0,109.60945 V 290.37717"
                     style="fill:none;stroke:#000000;stroke-width:0.3985;stroke-linecap:butt;stroke-linejoin:miter;stroke-miterlimit:10;stroke-dasharray:none;stroke-opacity:1"
                     id="path1249"
                     inkscape:connector-curvature="0" /></g><g
                   id="g1377"><g
                     id="g1379"><path
                       d="M 207.60046,143.90308 V 406.831 l 7.56907,-5.0005 V 138.9026 Z"
                       style="fill:#feee66;fill-opacity:1;fill-rule:nonzero;stroke:#fde725;stroke-width:0.3985;stroke-linecap:butt;stroke-linejoin:miter;stroke-miterlimit:10;stroke-dasharray:none;stroke-opacity:1"
                       id="path1381"
                       inkscape:connector-curvature="0" /><path
                       d="m 226.51585,141.40138 v 262.9279 L 215.16953,401.8305 V 138.9026 Z"
                       style="fill:#feee66;fill-opacity:1;fill-rule:nonzero;stroke:#fde725;stroke-width:0.3985;stroke-linecap:butt;stroke-linejoin:miter;stroke-miterlimit:10;stroke-dasharray:none;stroke-opacity:1"
                       id="path1383"
                       inkscape:connector-curvature="0" /><path
                       d="m 218.9468,409.32977 7.56905,-5.00049 -11.34632,-2.49878 -7.56907,5.0005 z"
                       style="fill:#feee66;fill-opacity:1;fill-rule:nonzero;stroke:#fde725;stroke-width:0.3985;stroke-linecap:butt;stroke-linejoin:miter;stroke-miterlimit:10;stroke-dasharray:none;stroke-opacity:1"
                       id="path1385"
                       inkscape:connector-curvature="0" /></g><g
                     id="g1387"><path
                       d="m 224.35912,132.83147 v 262.92791 l 7.56907,-5.00047 V 127.831 Z"
                       style="fill:#feee66;fill-opacity:1;fill-rule:nonzero;stroke:#fde725;stroke-width:0.3985;stroke-linecap:butt;stroke-linejoin:miter;stroke-miterlimit:10;stroke-dasharray:none;stroke-opacity:1"
                       id="path1389"
                       inkscape:connector-curvature="0" /><path
                       d="m 243.27452,130.32977 v 262.92792 l -11.34633,-2.49878 V 127.831 Z"
                       style="fill:#feee66;fill-opacity:1;fill-rule:nonzero;stroke:#fde725;stroke-width:0.3985;stroke-linecap:butt;stroke-linejoin:miter;stroke-miterlimit:10;stroke-dasharray:none;stroke-opacity:1"
                       id="path1391"
                       inkscape:connector-curvature="0" /><path
                       d="m 235.70544,398.25816 7.56908,-5.00047 -11.34633,-2.49878 -7.56907,5.00047 z"
                       style="fill:#feee66;fill-opacity:1;fill-rule:nonzero;stroke:#fde725;stroke-width:0.3985;stroke-linecap:butt;stroke-linejoin:miter;stroke-miterlimit:10;stroke-dasharray:none;stroke-opacity:1"
                       id="path1393"
                       inkscape:connector-curvature="0" /></g><g
                     id="g1395"><path
                       d="m 241.11778,121.75919 v 197.19593 l 7.56906,-5.00048 V 116.75871 Z"
                       style="fill:#feee66;fill-opacity:1;fill-rule:nonzero;stroke:#fde725;stroke-width:0.3985;stroke-linecap:butt;stroke-linejoin:miter;stroke-miterlimit:10;stroke-dasharray:none;stroke-opacity:1"
                       id="path1397"
                       inkscape:connector-curvature="0" /><path
                       d="m 260.03317,119.25749 v 197.19592 l -11.34633,-2.49877 V 116.75871 Z"
                       style="fill:#feee66;fill-opacity:1;fill-rule:nonzero;stroke:#fde725;stroke-width:0.3985;stroke-linecap:butt;stroke-linejoin:miter;stroke-miterlimit:10;stroke-dasharray:none;stroke-opacity:1"
                       id="path1399"
                       inkscape:connector-curvature="0" /><path
                       d="m 252.46411,321.4539 7.56906,-5.00049 -11.34633,-2.49877 -7.56906,5.00048 z"
                       style="fill:#feee66;fill-opacity:1;fill-rule:nonzero;stroke:#fde725;stroke-width:0.3985;stroke-linecap:butt;stroke-linejoin:miter;stroke-miterlimit:10;stroke-dasharray:none;stroke-opacity:1"
                       id="path1401"
                       inkscape:connector-curvature="0" /></g><g
                     id="g1403"><path
                       d="m 257.87645,110.68759 v 197.19592 l 7.56906,-5.00047 V 105.6871 Z"
                       style="fill:#feee66;fill-opacity:1;fill-rule:nonzero;stroke:#fde725;stroke-width:0.3985;stroke-linecap:butt;stroke-linejoin:miter;stroke-miterlimit:10;stroke-dasharray:none;stroke-opacity:1"
                       id="path1405"
                       inkscape:connector-curvature="0" /><path
                       d="m 276.79184,108.18588 v 197.19594 l -11.34633,-2.49878 V 105.6871 Z"
                       style="fill:#feee66;fill-opacity:1;fill-rule:nonzero;stroke:#fde725;stroke-width:0.3985;stroke-linecap:butt;stroke-linejoin:miter;stroke-miterlimit:10;stroke-dasharray:none;stroke-opacity:1"
                       id="path1407"
                       inkscape:connector-curvature="0" /><path
                       d="m 269.22278,310.3823 7.56906,-5.00048 -11.34633,-2.49878 -7.56906,5.00047 z"
                       style="fill:#feee66;fill-opacity:1;fill-rule:nonzero;stroke:#fde725;stroke-width:0.3985;stroke-linecap:butt;stroke-linejoin:miter;stroke-miterlimit:10;stroke-dasharray:none;stroke-opacity:1"
                       id="path1409"
                       inkscape:connector-curvature="0" /></g><g
                     id="g1411"><path
                       d="m 274.6351,99.61531 v 131.46393 l 7.56906,-5.00047 V 94.61482 Z"
                       style="fill:#feee66;fill-opacity:1;fill-rule:nonzero;stroke:#fde725;stroke-width:0.3985;stroke-linecap:butt;stroke-linejoin:miter;stroke-miterlimit:10;stroke-dasharray:none;stroke-opacity:1"
                       id="path1413"
                       inkscape:connector-curvature="0" /><path
                       d="m 293.5505,97.1136 v 131.46395 l -11.34634,-2.49878 V 94.61482 Z"
                       style="fill:#feee66;fill-opacity:1;fill-rule:nonzero;stroke:#fde725;stroke-width:0.3985;stroke-linecap:butt;stroke-linejoin:miter;stroke-miterlimit:10;stroke-dasharray:none;stroke-opacity:1"
                       id="path1415"
                       inkscape:connector-curvature="0" /><path
                       d="m 285.98143,233.57802 7.56907,-5.00047 -11.34634,-2.49878 -7.56906,5.00047 z"
                       style="fill:#feee66;fill-opacity:1;fill-rule:nonzero;stroke:#fde725;stroke-width:0.3985;stroke-linecap:butt;stroke-linejoin:miter;stroke-miterlimit:10;stroke-dasharray:none;stroke-opacity:1"
                       id="path1417"
                       inkscape:connector-curvature="0" /></g><g
                     id="g1419"><path
                       d="m 164.05743,134.31366 v 262.92792 l 7.56907,-5.00048 V 129.31319 Z"
                       style="fill:#72cda1;fill-opacity:1;fill-rule:nonzero;stroke:#36b778;stroke-width:0.3985;stroke-linecap:butt;stroke-linejoin:miter;stroke-miterlimit:10;stroke-dasharray:none;stroke-opacity:1"
                       id="path1421"
                       inkscape:connector-curvature="0" /><path
                       d="M 182.97282,131.81197 V 394.73988 L 171.6265,392.2411 V 129.31319 Z"
                       style="fill:#72cda1;fill-opacity:1;fill-rule:nonzero;stroke:#36b778;stroke-width:0.3985;stroke-linecap:butt;stroke-linejoin:miter;stroke-miterlimit:10;stroke-dasharray:none;stroke-opacity:1"
                       id="path1423"
                       inkscape:connector-curvature="0" /><path
                       d="m 175.40376,399.74036 7.56906,-5.00048 -11.34632,-2.49878 -7.56907,5.00048 z"
                       style="fill:#72cda1;fill-opacity:1;fill-rule:nonzero;stroke:#36b778;stroke-width:0.3985;stroke-linecap:butt;stroke-linejoin:miter;stroke-miterlimit:10;stroke-dasharray:none;stroke-opacity:1"
                       id="path1425"
                       inkscape:connector-curvature="0" /></g><g
                     id="g1427"><path
                       d="m 180.81609,123.24171 v 230.06194 l 7.56907,-5.00047 V 118.24124 Z"
                       style="fill:#72cda1;fill-opacity:1;fill-rule:nonzero;stroke:#36b778;stroke-width:0.3985;stroke-linecap:butt;stroke-linejoin:miter;stroke-miterlimit:10;stroke-dasharray:none;stroke-opacity:1"
                       id="path1429"
                       inkscape:connector-curvature="0" /><path
                       d="m 199.73149,120.74002 v 230.06194 l -11.34633,-2.49878 V 118.24124 Z"
                       style="fill:#72cda1;fill-opacity:1;fill-rule:nonzero;stroke:#36b778;stroke-width:0.3985;stroke-linecap:butt;stroke-linejoin:miter;stroke-miterlimit:10;stroke-dasharray:none;stroke-opacity:1"
                       id="path1431"
                       inkscape:connector-curvature="0" /><path
                       d="m 192.16243,355.80243 7.56906,-5.00047 -11.34633,-2.49878 -7.56907,5.00047 z"
                       style="fill:#72cda1;fill-opacity:1;fill-rule:nonzero;stroke:#36b778;stroke-width:0.3985;stroke-linecap:butt;stroke-linejoin:miter;stroke-miterlimit:10;stroke-dasharray:none;stroke-opacity:1"
                       id="path1433"
                       inkscape:connector-curvature="0" /></g><g
                     id="g1435"><path
                       d="M 197.57475,112.16978 V 309.3657 l 7.56906,-5.00047 V 107.1693 Z"
                       style="fill:#72cda1;fill-opacity:1;fill-rule:nonzero;stroke:#36b778;stroke-width:0.3985;stroke-linecap:butt;stroke-linejoin:miter;stroke-miterlimit:10;stroke-dasharray:none;stroke-opacity:1"
                       id="path1437"
                       inkscape:connector-curvature="0" /><path
                       d="m 216.49014,109.66808 v 197.19593 l -11.34633,-2.49878 V 107.1693 Z"
                       style="fill:#72cda1;fill-opacity:1;fill-rule:nonzero;stroke:#36b778;stroke-width:0.3985;stroke-linecap:butt;stroke-linejoin:miter;stroke-miterlimit:10;stroke-dasharray:none;stroke-opacity:1"
                       id="path1439"
                       inkscape:connector-curvature="0" /><path
                       d="m 208.92108,311.86449 7.56906,-5.00048 -11.34633,-2.49878 -7.56906,5.00047 z"
                       style="fill:#72cda1;fill-opacity:1;fill-rule:nonzero;stroke:#36b778;stroke-width:0.3985;stroke-linecap:butt;stroke-linejoin:miter;stroke-miterlimit:10;stroke-dasharray:none;stroke-opacity:1"
                       id="path1441"
                       inkscape:connector-curvature="0" /></g><g
                     id="g1443"><path
                       d="m 214.33342,101.0975 v 131.46393 l 7.56906,-5.00047 V 96.09702 Z"
                       style="fill:#72cda1;fill-opacity:1;fill-rule:nonzero;stroke:#36b778;stroke-width:0.3985;stroke-linecap:butt;stroke-linejoin:miter;stroke-miterlimit:10;stroke-dasharray:none;stroke-opacity:1"
                       id="path1445"
                       inkscape:connector-curvature="0" /><path
                       d="m 233.24881,98.5958 v 131.46394 l -11.34633,-2.49878 V 96.09702 Z"
                       style="fill:#72cda1;fill-opacity:1;fill-rule:nonzero;stroke:#36b778;stroke-width:0.3985;stroke-linecap:butt;stroke-linejoin:miter;stroke-miterlimit:10;stroke-dasharray:none;stroke-opacity:1"
                       id="path1447"
                       inkscape:connector-curvature="0" /><path
                       d="m 225.67975,235.06021 7.56906,-5.00047 -11.34633,-2.49878 -7.56906,5.00047 z"
                       style="fill:#72cda1;fill-opacity:1;fill-rule:nonzero;stroke:#36b778;stroke-width:0.3985;stroke-linecap:butt;stroke-linejoin:miter;stroke-miterlimit:10;stroke-dasharray:none;stroke-opacity:1"
                       id="path1449"
                       inkscape:connector-curvature="0" /></g><g
                     id="g1451"><path
                       d="m 231.09207,90.0252 v 65.73197 l 7.56908,-5.00049 V 85.02473 Z"
                       style="fill:#72cda1;fill-opacity:1;fill-rule:nonzero;stroke:#36b778;stroke-width:0.3985;stroke-linecap:butt;stroke-linejoin:miter;stroke-miterlimit:10;stroke-dasharray:none;stroke-opacity:1"
                       id="path1453"
                       inkscape:connector-curvature="0" /><path
                       d="m 250.00748,87.52351 v 65.73195 l -11.34633,-2.49878 V 85.02473 Z"
                       style="fill:#72cda1;fill-opacity:1;fill-rule:nonzero;stroke:#36b778;stroke-width:0.3985;stroke-linecap:butt;stroke-linejoin:miter;stroke-miterlimit:10;stroke-dasharray:none;stroke-opacity:1"
                       id="path1455"
                       inkscape:connector-curvature="0" /><path
                       d="m 242.4384,158.25595 7.56908,-5.00049 -11.34633,-2.49878 -7.56908,5.00049 z"
                       style="fill:#72cda1;fill-opacity:1;fill-rule:nonzero;stroke:#36b778;stroke-width:0.3985;stroke-linecap:butt;stroke-linejoin:miter;stroke-miterlimit:10;stroke-dasharray:none;stroke-opacity:1"
                       id="path1457"
                       inkscape:connector-curvature="0" /></g><g
                     id="g1459"><path
                       d="m 120.5144,124.72357 v 197.19594 l 7.56907,-5.00049 V 119.7231 Z"
                       style="fill:#6f95b0;fill-opacity:1;fill-rule:nonzero;stroke:#31688e;stroke-width:0.3985;stroke-linecap:butt;stroke-linejoin:miter;stroke-miterlimit:10;stroke-dasharray:none;stroke-opacity:1"
                       id="path1461"
                       inkscape:connector-curvature="0" /><path
                       d="M 139.4298,122.22188 V 319.4178 l -11.34633,-2.49878 V 119.7231 Z"
                       style="fill:#6f95b0;fill-opacity:1;fill-rule:nonzero;stroke:#31688e;stroke-width:0.3985;stroke-linecap:butt;stroke-linejoin:miter;stroke-miterlimit:10;stroke-dasharray:none;stroke-opacity:1"
                       id="path1463"
                       inkscape:connector-curvature="0" /><path
                       d="m 131.86073,324.41829 7.56907,-5.00049 -11.34633,-2.49878 -7.56907,5.00049 z"
                       style="fill:#6f95b0;fill-opacity:1;fill-rule:nonzero;stroke:#31688e;stroke-width:0.3985;stroke-linecap:butt;stroke-linejoin:miter;stroke-miterlimit:10;stroke-dasharray:none;stroke-opacity:1"
                       id="path1465"
                       inkscape:connector-curvature="0" /></g><g
                     id="g1467"><path
                       d="M 137.27307,113.65198 V 310.8479 l 7.56906,-5.00047 V 108.65149 Z"
                       style="fill:#6f95b0;fill-opacity:1;fill-rule:nonzero;stroke:#31688e;stroke-width:0.3985;stroke-linecap:butt;stroke-linejoin:miter;stroke-miterlimit:10;stroke-dasharray:none;stroke-opacity:1"
                       id="path1469"
                       inkscape:connector-curvature="0" /><path
                       d="M 156.18846,111.15027 V 308.3462 l -11.34633,-2.49877 V 108.65149 Z"
                       style="fill:#6f95b0;fill-opacity:1;fill-rule:nonzero;stroke:#31688e;stroke-width:0.3985;stroke-linecap:butt;stroke-linejoin:miter;stroke-miterlimit:10;stroke-dasharray:none;stroke-opacity:1"
                       id="path1471"
                       inkscape:connector-curvature="0" /><path
                       d="m 148.6194,313.34668 7.56906,-5.00048 -11.34633,-2.49877 -7.56906,5.00047 z"
                       style="fill:#6f95b0;fill-opacity:1;fill-rule:nonzero;stroke:#31688e;stroke-width:0.3985;stroke-linecap:butt;stroke-linejoin:miter;stroke-miterlimit:10;stroke-dasharray:none;stroke-opacity:1"
                       id="path1473"
                       inkscape:connector-curvature="0" /></g><g
                     id="g1475"><path
                       d="m 154.03172,102.58002 v 164.32995 l 7.56908,-5.00047 V 97.57954 Z"
                       style="fill:#6f95b0;fill-opacity:1;fill-rule:nonzero;stroke:#31688e;stroke-width:0.3985;stroke-linecap:butt;stroke-linejoin:miter;stroke-miterlimit:10;stroke-dasharray:none;stroke-opacity:1"
                       id="path1477"
                       inkscape:connector-curvature="0" /><path
                       d="M 172.94713,100.07832 V 264.40828 L 161.6008,261.9095 V 97.57954 Z"
                       style="fill:#6f95b0;fill-opacity:1;fill-rule:nonzero;stroke:#31688e;stroke-width:0.3985;stroke-linecap:butt;stroke-linejoin:miter;stroke-miterlimit:10;stroke-dasharray:none;stroke-opacity:1"
                       id="path1479"
                       inkscape:connector-curvature="0" /><path
                       d="m 165.37805,269.40875 7.56908,-5.00047 -11.34633,-2.49878 -7.56908,5.00047 z"
                       style="fill:#6f95b0;fill-opacity:1;fill-rule:nonzero;stroke:#31688e;stroke-width:0.3985;stroke-linecap:butt;stroke-linejoin:miter;stroke-miterlimit:10;stroke-dasharray:none;stroke-opacity:1"
                       id="path1481"
                       inkscape:connector-curvature="0" /></g><g
                     id="g1483"><path
                       d="m 170.79039,91.50842 v 164.32996 l 7.56906,-5.00049 V 86.50795 Z"
                       style="fill:#6f95b0;fill-opacity:1;fill-rule:nonzero;stroke:#31688e;stroke-width:0.3985;stroke-linecap:butt;stroke-linejoin:miter;stroke-miterlimit:10;stroke-dasharray:none;stroke-opacity:1"
                       id="path1485"
                       inkscape:connector-curvature="0" /><path
                       d="m 189.70578,89.00673 v 164.32994 l -11.34633,-2.49878 V 86.50795 Z"
                       style="fill:#6f95b0;fill-opacity:1;fill-rule:nonzero;stroke:#31688e;stroke-width:0.3985;stroke-linecap:butt;stroke-linejoin:miter;stroke-miterlimit:10;stroke-dasharray:none;stroke-opacity:1"
                       id="path1487"
                       inkscape:connector-curvature="0" /><path
                       d="m 182.13672,258.33716 7.56906,-5.00049 -11.34633,-2.49878 -7.56906,5.00049 z"
                       style="fill:#6f95b0;fill-opacity:1;fill-rule:nonzero;stroke:#31688e;stroke-width:0.3985;stroke-linecap:butt;stroke-linejoin:miter;stroke-miterlimit:10;stroke-dasharray:none;stroke-opacity:1"
                       id="path1489"
                       inkscape:connector-curvature="0" /></g><g
                     id="g1491"><path
                       d="m 187.54906,80.4365 v 131.46394 l 7.56906,-5.00049 V 75.436 Z"
                       style="fill:#6f95b0;fill-opacity:1;fill-rule:nonzero;stroke:#31688e;stroke-width:0.3985;stroke-linecap:butt;stroke-linejoin:miter;stroke-miterlimit:10;stroke-dasharray:none;stroke-opacity:1"
                       id="path1493"
                       inkscape:connector-curvature="0" /><path
                       d="m 206.46445,77.93478 v 131.46395 l -11.34633,-2.49878 V 75.436 Z"
                       style="fill:#6f95b0;fill-opacity:1;fill-rule:nonzero;stroke:#31688e;stroke-width:0.3985;stroke-linecap:butt;stroke-linejoin:miter;stroke-miterlimit:10;stroke-dasharray:none;stroke-opacity:1"
                       id="path1495"
                       inkscape:connector-curvature="0" /><path
                       d="m 198.89539,214.39922 7.56906,-5.00049 -11.34633,-2.49878 -7.56906,5.00049 z"
                       style="fill:#6f95b0;fill-opacity:1;fill-rule:nonzero;stroke:#31688e;stroke-width:0.3985;stroke-linecap:butt;stroke-linejoin:miter;stroke-miterlimit:10;stroke-dasharray:none;stroke-opacity:1"
                       id="path1497"
                       inkscape:connector-curvature="0" /></g><g
                     id="g1499"><path
                       d="M 76.97137,115.13417 V 312.3301 l 7.56908,-5.00048 V 110.13368 Z"
                       style="fill:#7c4d87;fill-opacity:1;fill-rule:nonzero;stroke:#440154;stroke-width:0.3985;stroke-linecap:butt;stroke-linejoin:miter;stroke-miterlimit:10;stroke-dasharray:none;stroke-opacity:1"
                       id="path1501"
                       inkscape:connector-curvature="0" /><path
                       d="M 95.88678,112.63246 V 309.8284 L 84.54045,307.32962 V 110.13368 Z"
                       style="fill:#7c4d87;fill-opacity:1;fill-rule:nonzero;stroke:#440154;stroke-width:0.3985;stroke-linecap:butt;stroke-linejoin:miter;stroke-miterlimit:10;stroke-dasharray:none;stroke-opacity:1"
                       id="path1503"
                       inkscape:connector-curvature="0" /><path
                       d="m 88.3177,314.82887 7.56908,-5.00047 -11.34633,-2.49878 -7.56908,5.00048 z"
                       style="fill:#7c4d87;fill-opacity:1;fill-rule:nonzero;stroke:#440154;stroke-width:0.3985;stroke-linecap:butt;stroke-linejoin:miter;stroke-miterlimit:10;stroke-dasharray:none;stroke-opacity:1"
                       id="path1505"
                       inkscape:connector-curvature="0" /></g><g
                     id="g1507"><path
                       d="m 93.73004,104.0605 v 0 l 7.56906,-5.00047 v 0 z"
                       style="fill:#7c4d87;fill-opacity:1;fill-rule:nonzero;stroke:#440154;stroke-width:0.3985;stroke-linecap:butt;stroke-linejoin:miter;stroke-miterlimit:10;stroke-dasharray:none;stroke-opacity:1"
                       id="path1509"
                       inkscape:connector-curvature="0" /><path
                       d="m 112.64543,101.5588 v 0 L 101.2991,99.06003 v 0 z"
                       style="fill:#7c4d87;fill-opacity:1;fill-rule:nonzero;stroke:#440154;stroke-width:0.3985;stroke-linecap:butt;stroke-linejoin:miter;stroke-miterlimit:10;stroke-dasharray:none;stroke-opacity:1"
                       id="path1511"
                       inkscape:connector-curvature="0" /><path
                       d="m 105.07637,106.55928 7.56906,-5.00048 -11.34633,-2.49877 -7.56906,5.00047 z"
                       style="fill:#7c4d87;fill-opacity:1;fill-rule:nonzero;stroke:#440154;stroke-width:0.3985;stroke-linecap:butt;stroke-linejoin:miter;stroke-miterlimit:10;stroke-dasharray:none;stroke-opacity:1"
                       id="path1513"
                       inkscape:connector-curvature="0" /></g><g
                     id="g1515"><path
                       d="m 110.48871,92.98889 v 0 l 7.56906,-5.00047 v 0 z"
                       style="fill:#7c4d87;fill-opacity:1;fill-rule:nonzero;stroke:#440154;stroke-width:0.3985;stroke-linecap:butt;stroke-linejoin:miter;stroke-miterlimit:10;stroke-dasharray:none;stroke-opacity:1"
                       id="path1517"
                       inkscape:connector-curvature="0" /><path
                       d="m 129.4041,90.4872 v 0 l -11.34633,-2.49878 v 0 z"
                       style="fill:#7c4d87;fill-opacity:1;fill-rule:nonzero;stroke:#440154;stroke-width:0.3985;stroke-linecap:butt;stroke-linejoin:miter;stroke-miterlimit:10;stroke-dasharray:none;stroke-opacity:1"
                       id="path1519"
                       inkscape:connector-curvature="0" /><path
                       d="m 121.83504,95.48767 7.56906,-5.00047 -11.34633,-2.49878 -7.56906,5.00047 z"
                       style="fill:#7c4d87;fill-opacity:1;fill-rule:nonzero;stroke:#440154;stroke-width:0.3985;stroke-linecap:butt;stroke-linejoin:miter;stroke-miterlimit:10;stroke-dasharray:none;stroke-opacity:1"
                       id="path1521"
                       inkscape:connector-curvature="0" /></g><g
                     id="g1523"><path
                       d="m 127.24736,81.9173 v 0 l 7.56906,-5.00048 v 0 z"
                       style="fill:#7c4d87;fill-opacity:1;fill-rule:nonzero;stroke:#440154;stroke-width:0.3985;stroke-linecap:butt;stroke-linejoin:miter;stroke-miterlimit:10;stroke-dasharray:none;stroke-opacity:1"
                       id="path1525"
                       inkscape:connector-curvature="0" /><path
                       d="m 146.16277,79.4156 v 0 l -11.34635,-2.49878 v 0 z"
                       style="fill:#7c4d87;fill-opacity:1;fill-rule:nonzero;stroke:#440154;stroke-width:0.3985;stroke-linecap:butt;stroke-linejoin:miter;stroke-miterlimit:10;stroke-dasharray:none;stroke-opacity:1"
                       id="path1527"
                       inkscape:connector-curvature="0" /><path
                       d="m 138.59369,84.41608 7.56908,-5.00048 -11.34635,-2.49878 -7.56906,5.00048 z"
                       style="fill:#7c4d87;fill-opacity:1;fill-rule:nonzero;stroke:#440154;stroke-width:0.3985;stroke-linecap:butt;stroke-linejoin:miter;stroke-miterlimit:10;stroke-dasharray:none;stroke-opacity:1"
                       id="path1529"
                       inkscape:connector-curvature="0" /></g><g
                     id="g1531"><path
                       d="m 144.00603,70.8457 v 0 l 7.56906,-5.00049 v 0 z"
                       style="fill:#7c4d87;fill-opacity:1;fill-rule:nonzero;stroke:#440154;stroke-width:0.3985;stroke-linecap:butt;stroke-linejoin:miter;stroke-miterlimit:10;stroke-dasharray:none;stroke-opacity:1"
                       id="path1533"
                       inkscape:connector-curvature="0" /><path
                       d="m 162.92142,68.344 v 0 l -11.34633,-2.49879 v 0 z"
                       style="fill:#7c4d87;fill-opacity:1;fill-rule:nonzero;stroke:#440154;stroke-width:0.3985;stroke-linecap:butt;stroke-linejoin:miter;stroke-miterlimit:10;stroke-dasharray:none;stroke-opacity:1"
                       id="path1535"
                       inkscape:connector-curvature="0" /><path
                       d="m 155.35236,73.34448 7.56906,-5.00048 -11.34633,-2.49879 -7.56906,5.00049 z"
                       style="fill:#7c4d87;fill-opacity:1;fill-rule:nonzero;stroke:#440154;stroke-width:0.3985;stroke-linecap:butt;stroke-linejoin:miter;stroke-miterlimit:10;stroke-dasharray:none;stroke-opacity:1"
                       id="path1537"
                       inkscape:connector-curvature="0" /></g></g><g
                   id="g1539"
                   transform="matrix(-1,0,0,1,595.73929,41.896871)"><g
                     id="g1541"
                     transform="translate(295.247,8.488)"><g
                       id="g1543"><g
                         id="g1545"
                         transform="translate(-321.41,-11.816)"><text
                           transform="matrix(1,0,0,-1,321.41,11.816)"
                           style="font-variant:normal;font-weight:normal;font-size:9.96259975px;font-family:CMR10;-inkscape-font-specification:CMR10;writing-mode:lr-tb;fill:#000000;fill-opacity:1;fill-rule:nonzero;stroke:none"
                           id="text1549"><tspan
                             x="0 5.2582603 8.0258703 11.95512 17.490341 22.47164 28.556797 35.482796 40.464096 44.366447"
                             y="0"
                             sodipodi:role="line"
                             id="tspan1547">visualword</tspan></text>
<g
                           id="g1551"
                           transform="translate(321.41,11.816)" /></g></g><g
                       id="g1553"
                       transform="translate(-295.247,-8.488)" /></g></g><g
                   id="g1555"
                   transform="matrix(-1,0,0,1,109.95579,16.5)"><g
                     id="g1557"
                     transform="translate(55.449,32.463)"><g
                       id="g1559"><g
                         id="g1561"
                         transform="translate(-81.612,-35.791)"><text
                           transform="matrix(1,0,0,-1,81.612,35.791)"
                           style="font-variant:normal;font-weight:normal;font-size:9.96259975px;font-family:CMR10;-inkscape-font-specification:CMR10;writing-mode:lr-tb;fill:#000000;fill-opacity:1;fill-rule:nonzero;stroke:none"
                           id="text1565"><tspan
                             x="0 3.0445704 6.9469209 11.928221 20.230055"
                             y="0"
                             sodipodi:role="line"
                             id="tspan1563">frame</tspan></text>
<g
                           id="g1567"
                           transform="translate(81.612,35.791)" /></g></g><g
                       id="g1569"
                       transform="translate(-55.449,-32.463)" /></g></g><g
                   id="g1571"
                   transform="translate(-3.7499944e-8,-9)"><g
                     id="g1573"
                     transform="matrix(0,1,1,0,-13.79295,146.179)"><g
                       id="g1575"><g
                         id="g1577"
                         transform="translate(-13.367,-149.507)"><text
                           transform="matrix(1,0,0,-1,13.367,149.507)"
                           style="font-variant:normal;font-weight:normal;font-size:9.96259975px;font-family:CMR10;-inkscape-font-specification:CMR10;writing-mode:lr-tb;fill:#000000;fill-opacity:1;fill-rule:nonzero;stroke:none"
                           id="text1581"><tspan
                             x="0 4.9812999 13.283134 18.264435 23.799656 29.055923 36.257885 41.239185 46.764446 52.578617 57.005997 61.987297 65.889648 70.317024 79.179756 82.224327 86.651703 91.633003 95.507462 101.04268 104.94503 109.37241"
                             y="0"
                             sodipodi:role="line"
                             id="tspan1579">amountappearedfeatures</tspan></text>
<g
                           id="g1583"
                           transform="translate(13.367,149.507)" /></g></g><g
                       id="g1585"
                       transform="translate(12.796,-146.179)" /></g></g></g></g></g><g
             id="g1587" /><g
             id="g1589" /><g
             id="g1591"
             transform="translate(-23.035,-0.2)"><g
               id="g1593" /><g
               id="g1595"
               transform="translate(23.035,0.2)" /></g><g
             id="g1597" /><g
             id="g1599" /></g><g
           id="g1601" /><g
           id="g1603" /></g></g></g></svg>